{
    "data": [
        {
            "attributes": {
                "change_visibility_at": null,
                "comment_count": 1,
                "content": "<p>Some looming angles of a lombax\u00a0</p><p>Have a few ideas, playing around with what kinda view I wanna give her in the future!\u00a0</p><p>And yes, a lombax LAD will be joining her in the realms of the big as well, eventually!\u00a0</p>",
                "current_user_can_comment": true,
                "current_user_can_delete": false,
                "current_user_can_view": true,
                "current_user_has_liked": false,
                "embed": null,
                "has_ti_violation": false,
                "image": {
                    "height": 3349,
                    "large_url": "https://c10.patreonusercontent.com/3/eyJ3IjoxNjAwfQ%3D%3D/patreon-media/p/post/52662306/3bf5b0cafd0243c7905ec63ac0d61782/1.jpg?token-time=1626220800&token-hash=qYqXDqsLGdezml-DLQYKQDI2xqbZuaVGlo6HQpIIKK8%3D",
                    "thumb_url": "https://c10.patreonusercontent.com/3/eyJoIjo1MTgsInciOjkyMH0%3D/patreon-media/p/post/52662306/3bf5b0cafd0243c7905ec63ac0d61782/1.jpg?token-time=1626220800&token-hash=AuMeWlPhS8NfD5JWsZbgG_w87mZArcxuHVhhWNCpAx4%3D",
                    "url": "https://c10.patreonusercontent.com/3/eyJ3Ijo2MjB9/patreon-media/p/post/52662306/3bf5b0cafd0243c7905ec63ac0d61782/1.jpg?token-time=1626220800&token-hash=ucJVQW6qKk9G7VUk7ArEEh-S4uqZksFTPj16loC4lOs%3D",
                    "width": 2266
                },
                "is_paid": false,
                "like_count": 7,
                "meta_image_url": "https://c7.patreon.com/https%3A%2F%2Fwww.patreon.com%2F%2Fpost-teaser-image%2F52662306/selector/%23post-teaser",
                "min_cents_pledged_to_view": null,
                "patreon_url": "https://www.patreon.com/posts/rivet-ideas-52662306",
                "pledge_url": "/bePatron?patAmt=1.0&c=4951881",
                "post_file": {
                    "name": "Riv1.jpg",
                    "url": "https://c10.patreonusercontent.com/3/eyJwIjoxfQ%3D%3D/patreon-media/p/post/52662306/3bf5b0cafd0243c7905ec63ac0d61782/1.jpg?token-time=1626220800&token-hash=6V-dRqKXb4bI9sQxlPRcgC2XhFLC_0b7zB0yyg1EWa4%3D"
                },
                "post_metadata": {
                    "image_order": [
                        "111454150",
                        "111454184",
                        "111454209"
                    ]
                },
                "post_type": "image_file",
                "published_at": "2021-06-18T19:48:38.000+00:00",
                "teaser_text": null,
                "title": "Rivet ideas",
                "upgrade_url": "/join/DylanBun/checkout?rid=5567222",
                "url": "https://www.patreon.com/posts/rivet-ideas-52662306",
                "was_posted_by_campaign_owner": true
            },
            "id": "52662306",
            "relationships": {
                "access_rules": {
                    "data": [
                        {
                            "id": "15010691",
                            "type": "access-rule"
                        },
                        {
                            "id": "15010373",
                            "type": "access-rule"
                        },
                        {
                            "id": "15010280",
                            "type": "access-rule"
                        },
                        {
                            "id": "15010029",
                            "type": "access-rule"
                        },
                        {
                            "id": "15010415",
                            "type": "access-rule"
                        },
                        {
                            "id": "17442833",
                            "type": "access-rule"
                        },
                        {
                            "id": "15010452",
                            "type": "access-rule"
                        },
                        {
                            "id": "15010230",
                            "type": "access-rule"
                        },
                        {
                            "id": "15010550",
                            "type": "access-rule"
                        },
                        {
                            "id": "17442875",
                            "type": "access-rule"
                        }
                    ]
                },
                "attachments": {
                    "data": []
                },
                "audio": {
                    "data": null
                },
                "campaign": {
                    "data": {
                        "id": "4951881",
                        "type": "campaign"
                    },
                    "links": {
                        "related": "https://www.patreon.com/api/campaigns/4951881"
                    }
                },
                "images": {
                    "data": [
                        {
                            "id": "111454150",
                            "type": "media"
                        },
                        {
                            "id": "111454184",
                            "type": "media"
                        },
                        {
                            "id": "111454209",
                            "type": "media"
                        }
                    ]
                },
                "media": {
                    "data": [
                        {
                            "id": "111454150",
                            "type": "media"
                        },
                        {
                            "id": "111454184",
                            "type": "media"
                        },
                        {
                            "id": "111454209",
                            "type": "media"
                        }
                    ]
                },
                "poll": {
                    "data": null
                },
                "ti_checks": {
                    "data": []
                },
                "user": {
                    "data": {
                        "id": "38816936",
                        "type": "user"
                    },
                    "links": {
                        "related": "https://www.patreon.com/api/user/38816936"
                    }
                },
                "user_defined_tags": {
                    "data": []
                }
            },
            "type": "post"
        }
    ],
    "included": [
        {
            "attributes": {
                "download_url": "https://c10.patreonusercontent.com/3/eyJhIjoxLCJwIjoxfQ%3D%3D/patreon-media/p/post/52662306/3bf5b0cafd0243c7905ec63ac0d61782/1.jpg?token-time=1625097600&token-hash=0pyz0NYHKRmwVCuKBbODLpp2IoXrEMElHL4d61urSYw%3D",
                "file_name": "Riv1.jpg",
                "image_urls": {
                    "default": "https://c10.patreonusercontent.com/3/eyJ3Ijo2MjB9/patreon-media/p/post/52662306/3bf5b0cafd0243c7905ec63ac0d61782/1.jpg?token-time=1626220800&token-hash=ucJVQW6qKk9G7VUk7ArEEh-S4uqZksFTPj16loC4lOs%3D",
                    "original": "https://c10.patreonusercontent.com/3/eyJxIjoxMDAsIndlYnAiOjB9/patreon-media/p/post/52662306/3bf5b0cafd0243c7905ec63ac0d61782/1.jpg?token-time=1626220800&token-hash=kt9ckdmeAZgomvVMjvvN8egwaMNr3gyP8H6DjSxqlF4%3D",
                    "thumbnail": "https://c10.patreonusercontent.com/3/eyJoIjozNjAsInciOjM2MH0%3D/patreon-media/p/post/52662306/3bf5b0cafd0243c7905ec63ac0d61782/1.jpg?token-time=1626220800&token-hash=4JgyPgJ9uPGRxvuRJHBSY9ZJ1QO4JP_z27GLSa1V0wU%3D"
                },
                "metadata": {
                    "dimensions": {
                        "h": 3349,
                        "w": 2266
                    }
                }
            },
            "id": "111454150",
            "type": "media"
        },
        {
            "attributes": {
                "download_url": "https://c10.patreonusercontent.com/3/eyJhIjoxLCJwIjoxfQ%3D%3D/patreon-media/p/post/52662306/fa76ee6c846a4877b16a10732721ace5/1.jpg?token-time=1625097600&token-hash=p6gScjZ1M-LtMFCBKla2Nawvq8eM-jTwBJubkA55AMQ%3D",
                "file_name": "Riv2.jpg",
                "image_urls": {
                    "default": "https://c10.patreonusercontent.com/3/eyJ3Ijo2MjB9/patreon-media/p/post/52662306/fa76ee6c846a4877b16a10732721ace5/1.jpg?token-time=1626220800&token-hash=v-IJwJ9rlMYckR8GvKMs-i96HcCObmjSwssFxD0xx8c%3D",
                    "original": "https://c10.patreonusercontent.com/3/eyJxIjoxMDAsIndlYnAiOjB9/patreon-media/p/post/52662306/fa76ee6c846a4877b16a10732721ace5/1.jpg?token-time=1626220800&token-hash=_HCMZHGqjLB-UbQ-7r14AkDVipeno6R3ih8mFjnJLqg%3D",
                    "thumbnail": "https://c10.patreonusercontent.com/3/eyJoIjozNjAsInciOjM2MH0%3D/patreon-media/p/post/52662306/fa76ee6c846a4877b16a10732721ace5/1.jpg?token-time=1626220800&token-hash=lvcCUuuQPmRCUhnTfpUlZLR21ZivLUJMDUYSBWZEkh4%3D"
                },
                "metadata": {
                    "dimensions": {
                        "h": 2297,
                        "w": 3772
                    }
                }
            },
            "id": "111454184",
            "type": "media"
        },
        {
            "attributes": {
                "download_url": "https://c10.patreonusercontent.com/3/eyJhIjoxLCJwIjoxfQ%3D%3D/patreon-media/p/post/52662306/61df48c597b2424a9f42ba5aaeecd356/1.jpg?token-time=1625097600&token-hash=kLJAj73r5uueIN16CrthYa5liQnJhLvTntzs7zai0Vc%3D",
                "file_name": "Riv3.jpg",
                "image_urls": {
                    "default": "https://c10.patreonusercontent.com/3/eyJ3Ijo2MjB9/patreon-media/p/post/52662306/61df48c597b2424a9f42ba5aaeecd356/1.jpg?token-time=1626220800&token-hash=-PEh_xswVtzY6p_357gM-cq80K9KpvUDTAaAiuZJDJs%3D",
                    "original": "https://c10.patreonusercontent.com/3/eyJxIjoxMDAsIndlYnAiOjB9/patreon-media/p/post/52662306/61df48c597b2424a9f42ba5aaeecd356/1.jpg?token-time=1626220800&token-hash=9qHoyb4QXJ5ygl0LRLCYByZvQLhshBIee5yP21JH4XA%3D",
                    "thumbnail": "https://c10.patreonusercontent.com/3/eyJoIjozNjAsInciOjM2MH0%3D/patreon-media/p/post/52662306/61df48c597b2424a9f42ba5aaeecd356/1.jpg?token-time=1626220800&token-hash=15K0psbIX6-VXHIdE9n9m4p_0NkzfUmZfyBb41IPFbw%3D"
                },
                "metadata": {
                    "dimensions": {
                        "h": 2468,
                        "w": 4022
                    }
                }
            },
            "id": "111454209",
            "type": "media"
        }
    ],
    "links": {
        "next": "https://www.patreon.com/api/posts?include=campaign%2Caccess_rules%2Cattachments%2Caudio%2Cimages%2Cmedia%2Cpoll.choices%2Cpoll.current_user_responses.user%2Cpoll.current_user_responses.choice%2Cpoll.current_user_responses.poll%2Cuser%2Cuser_defined_tags%2Cti_checks&fields%5Bcampaign%5D=currency%2Cshow_audio_post_download_links%2Cavatar_photo_url%2Cearnings_visibility%2Cis_nsfw%2Cis_monthly%2Cname%2Curl&fields%5Bpost%5D=change_visibility_at%2Ccomment_count%2Ccontent%2Ccurrent_user_can_comment%2Ccurrent_user_can_delete%2Ccurrent_user_can_view%2Ccurrent_user_has_liked%2Cembed%2Cimage%2Cis_paid%2Clike_count%2Cmeta_image_url%2Cmin_cents_pledged_to_view%2Cpost_file%2Cpost_metadata%2Cpublished_at%2Cpatreon_url%2Cpost_type%2Cpledge_url%2Cthumbnail_url%2Cteaser_text%2Ctitle%2Cupgrade_url%2Curl%2Cwas_posted_by_campaign_owner%2Chas_ti_violation&fields%5Bpost_tag%5D=tag_type%2Cvalue&fields%5Buser%5D=image_url%2Cfull_name%2Curl&fields%5Baccess_rule%5D=access_rule_type%2Camount_cents&fields%5Bmedia%5D=id%2Cimage_urls%2Cdownload_url%2Cmetadata%2Cfile_name&filter%5Bcampaign_id%5D=4951881&filter%5Bcontains_exclusive_posts%5D=true&filter%5Bis_draft%5D=false&sort=-published_at&json-api-version=1.0&page%5Bcursor%5D=w2SK-itVvOt4Gym7C2DvAKR05rs"
    },
    "meta": {
        "pagination": {
            "cursors": {
                "next": "w2SK-itVvOt4Gym7C2DvAKR05rs"
            },
            "total": 246
        }
    }
}